{
  "changes": [
    {
      "description": "Add support for triggering pipelines by commit hash.",
      "type": "minor"
    }
  ],
  "created_at": "2024-05-09T06:49:27+00:00",
  "version": "5.6.0"
}