{
  "changes": [
    {
      "description": "Internal maintenance: Add test for COMMIT variable support.",
      "type": "patch"
    },
    {
      "description": "Internal maintenance: Refactor pipe.",
      "type": "patch"
    }
  ],
  "created_at": "2024-06-13T07:45:15+00:00",
  "version": "5.7.1"
}