{
  "changes": [
    {
      "description": "Internal maintenance: Increase requests timeout to 10 seconds.",
      "type": "patch"
    }
  ],
  "created_at": "2024-06-27T08:53:27+00:00",
  "version": "5.7.2"
}